^C:\USERS\ALEX\SOURCE\REPOS\PROJECT9\DEBUG\MAIN.OBJ
C:\USERS\ALEX\SOURCE\REPOS\PROJECT9\DEBUG\PROJECT9.EXE
C:\USERS\ALEX\SOURCE\REPOS\PROJECT9\DEBUG\PROJECT9.ILK
C:\USERS\ALEX\SOURCE\REPOS\PROJECT9\DEBUG\PROJECT9.PDB
